<svg width="261" height="44" viewBox="0 0 261 44" fill="none" xmlns="http://www.w3.org/2000/svg">
<path fill-rule="evenodd" clip-rule="evenodd" d="M144.151 31.8061C143.866 31.8061 143.614 31.6244 143.523 31.3546L141.886 26.5076H134.432L132.796 31.3546C132.705 31.6244 132.452 31.8061 132.168 31.8061H130.43C129.971 31.8061 129.651 31.349 129.807 30.9159L136.389 12.6408C136.483 12.3774 136.733 12.2019 137.012 12.2019H139.361C139.64 12.2019 139.889 12.3774 139.984 12.6408L146.566 30.9159C146.722 31.349 146.402 31.8061 145.943 31.8061H144.151ZM138.119 15.4625L135.205 24.0622H141.114L138.2 15.4625H138.119ZM156.934 32.1321C151.446 32.1321 147.976 28.2466 147.976 21.9972C147.976 15.7885 151.473 11.8759 156.934 11.8759C161.075 11.8759 164.269 14.2596 165.091 17.9081C165.093 17.9168 165.095 17.9258 165.097 17.9351C165.182 18.3324 164.863 18.6959 164.458 18.6959H162.735C162.432 18.6959 162.169 18.489 162.083 18.1976C162.052 18.0915 162.019 17.9886 161.991 17.912C161.22 15.8462 159.303 14.5387 156.934 14.5387C153.384 14.5387 151.08 17.4596 151.08 21.9972C151.08 26.5756 153.357 29.4693 156.948 29.4693C159.352 29.4693 161.143 28.3797 161.95 26.4991C161.987 26.4145 162.029 26.2966 162.07 26.1776C162.164 25.8995 162.42 25.7061 162.713 25.7061H164.427C164.848 25.7061 165.17 26.0955 165.06 26.5019C165.058 26.5085 165.056 26.515 165.054 26.5212C164.066 30.0719 161.123 32.1321 156.934 32.1321ZM181.28 31.8061C180.996 31.8061 180.744 31.6244 180.652 31.3546L179.016 26.5076H171.562L169.926 31.3546C169.835 31.6244 169.582 31.8061 169.298 31.8061H167.56C167.101 31.8061 166.78 31.349 166.936 30.9159L173.518 12.6408C173.613 12.3774 173.863 12.2019 174.142 12.2019H176.491C176.77 12.2019 177.019 12.3774 177.114 12.6408L183.696 30.9159C183.852 31.349 183.532 31.8061 183.073 31.8061H181.28ZM175.249 15.4625L172.335 24.0622H178.244L175.33 15.4625H175.249ZM186.502 12.8665C186.502 12.4994 186.799 12.2019 187.165 12.2019H193.4C199.214 12.2019 202.656 15.7885 202.656 21.97C202.656 28.1651 199.228 31.8061 193.4 31.8061H187.165C186.799 31.8061 186.502 31.5085 186.502 31.1415V12.8665ZM189.538 14.824V29.1704H193.115C197.262 29.1704 199.553 26.6299 199.553 21.9972C199.553 17.3781 197.249 14.824 193.115 14.824H189.538ZM217.638 29.1704C218.004 29.1704 218.301 29.468 218.301 29.835V31.1415C218.301 31.5085 218.004 31.8061 217.638 31.8061H206.55C206.184 31.8061 205.887 31.5085 205.887 31.1415V12.8665C205.887 12.4994 206.184 12.2019 206.55 12.2019H217.638C218.004 12.2019 218.301 12.4994 218.301 12.8665V14.1594C218.301 14.5264 218.004 14.824 217.638 14.824H208.923V20.5571H217.136C217.502 20.5571 217.799 20.8546 217.799 21.2217V22.4195C217.799 22.7865 217.502 23.0841 217.136 23.0841H208.923V29.1704H217.638ZM241.534 31.1415C241.534 31.5085 241.237 31.8061 240.871 31.8061H239.419C239.053 31.8061 238.756 31.5085 238.756 31.1415V17.3781H238.661L232.935 31.3934C232.833 31.643 232.59 31.8061 232.321 31.8061H230.961C230.692 31.8061 230.45 31.6433 230.348 31.3939L224.608 17.3781H224.513V31.1415C224.513 31.5085 224.216 31.8061 223.85 31.8061H222.411C222.045 31.8061 221.748 31.5085 221.748 31.1415V12.8665C221.748 12.4994 222.045 12.2019 222.411 12.2019H224.812C225.082 12.2019 225.324 12.3658 225.426 12.6164L231.587 27.8255H231.695L237.843 12.6169C237.944 12.366 238.187 12.2019 238.457 12.2019H240.871C241.237 12.2019 241.534 12.4994 241.534 12.8665V31.1415ZM253.94 31.1415C253.94 31.5085 253.643 31.8061 253.277 31.8061H251.567C251.201 31.8061 250.904 31.5085 250.904 31.1415V23.7769L244.617 13.2068C244.354 12.7638 244.672 12.2019 245.187 12.2019H247.025C247.262 12.2019 247.481 12.3285 247.599 12.534L252.395 20.856H252.49L257.285 12.534C257.404 12.3285 257.623 12.2019 257.859 12.2019H259.67C260.184 12.2019 260.503 12.7643 260.239 13.2073L253.94 23.7769V31.1415Z" fill="#00DCF0"/>
<path fill-rule="evenodd" clip-rule="evenodd" d="M95.2291 27.215C95.0983 26.5834 95.6449 26.0322 96.2883 26.0322H98.7654C99.3366 26.0322 99.8185 26.4143 100.106 26.9092C100.167 27.0157 100.233 27.1117 100.3 27.1825C100.95 27.8675 102.064 28.2467 103.368 28.2467C105.306 28.2467 106.566 27.3772 106.566 26.1816C106.566 25.0948 105.726 24.5378 103.408 24.0894L101.403 23.709C97.4995 22.9754 95.4802 21.0598 95.4802 18.071C95.4802 14.2941 98.7463 11.8623 103.246 11.8623C107.499 11.8623 110.242 13.6698 110.943 16.5737L110.947 16.59L110.95 16.6051C111.119 17.3557 110.468 18.0166 109.701 18.0166H107.592C106.957 18.0166 106.5 17.5163 106.159 16.979C106.155 16.9726 106.151 16.9663 106.147 16.9602C105.627 16.1944 104.579 15.7614 103.286 15.7614C101.484 15.7614 100.413 16.5765 100.413 17.7313C100.413 18.7638 101.308 19.3344 103.435 19.742L105.441 20.1224C109.615 20.924 111.512 22.6222 111.512 25.7061C111.512 29.646 108.436 32.1458 103.273 32.1458C98.916 32.1458 95.8778 30.3474 95.2291 27.215ZM62.8779 31.8061C63.2441 31.8061 63.5409 31.5086 63.5409 31.1416V20.299H63.6493L71.7854 31.532C71.9101 31.7042 72.1095 31.8061 72.3218 31.8061H75.2511C75.6172 31.8061 75.914 31.5086 75.914 31.1416V12.8665C75.914 12.4995 75.6172 12.2019 75.2511 12.2019H71.8608C71.4947 12.2019 71.1979 12.4995 71.1979 12.8665V23.6003H71.0895L62.9941 12.4749C62.8693 12.3034 62.6703 12.2019 62.4585 12.2019H59.4876C59.1215 12.2019 58.8247 12.4995 58.8247 12.8665V31.1416C58.8247 31.5086 59.1215 31.8061 59.4876 31.8061H62.8779ZM92.602 28.4493C92.602 28.0823 92.3052 27.7847 91.939 27.7847H84.1725V23.7905H91.4376C91.8037 23.7905 92.1005 23.493 92.1005 23.126V20.787C92.1005 20.4199 91.8037 20.1224 91.4376 20.1224H84.1725V16.2233H91.939C92.3052 16.2233 92.602 15.9258 92.602 15.5588V12.8665C92.602 12.4995 92.3052 12.2019 91.939 12.2019H79.8618C79.4956 12.2019 79.1988 12.4995 79.1988 12.8665V31.1416C79.1988 31.5086 79.4956 31.8061 79.8618 31.8061H91.939C92.3052 31.8061 92.602 31.5086 92.602 31.1416V28.4493ZM122.97 31.8061C123.336 31.8061 123.633 31.5086 123.633 31.1416V16.2233H128.364C128.73 16.2233 129.027 15.9258 129.027 15.5588V12.8665C129.027 12.4995 128.73 12.2019 128.364 12.2019H113.942C113.576 12.2019 113.279 12.4995 113.279 12.8665V15.5588C113.279 15.9258 113.576 16.2233 113.942 16.2233H118.673V31.1416C118.673 31.5086 118.97 31.8061 119.336 31.8061H122.97Z" fill="#303030"/>
<path fill-rule="evenodd" clip-rule="evenodd" d="M26.0752 12.198V18.6667L19.5564 12.198H13.9068V8.86749L10.8684 5.76266C10.8659 5.69394 10.8647 5.62489 10.8647 5.55556C10.8647 2.48731 13.2968 0 16.297 0C19.2972 0 21.7293 2.48731 21.7293 5.55556V10.8942L23.9022 13.1138V5.55556C23.9022 2.48731 26.3344 0 29.3346 0C32.3347 0 34.7669 2.48731 34.7669 5.55556C34.7669 5.62489 34.7656 5.69394 34.7632 5.76266L31.7248 8.86749V12.198H26.0752ZM40.872 18.6667L42.5229 16.9769C44.3606 17.8676 45.6315 19.782 45.6315 22C45.6315 24.218 44.3606 26.1324 42.5229 27.0231L40.872 25.3333H33.8977V18.6667H40.872ZM33.8977 27.5556H39.5222C41.2194 28.4952 42.3721 30.3321 42.3721 32.4444C42.3721 35.295 40.2728 37.6442 37.5691 37.9631L33.8977 34.2115V27.5556ZM31.7248 35.1325L34.7632 38.2373C34.7656 38.3061 34.7669 38.3751 34.7669 38.4444C34.7669 41.5127 32.3347 44 29.3346 44C26.3344 44 23.9022 41.5127 23.9022 38.4444V33.1191L21.7293 30.8969V38.4444C21.7293 41.5127 19.2972 44 16.297 44C13.2968 44 10.8647 41.5127 10.8647 38.4444C10.8647 38.3751 10.8659 38.3061 10.8684 38.2373L13.9068 35.1325V31.802H19.5564V25.3333L26.0752 31.802H31.7248V35.1325ZM33.8977 16.4444V9.78849L37.5691 6.03687C40.2728 6.35581 42.3721 8.70496 42.3721 11.5556C42.3721 13.6679 41.2194 15.5048 39.5222 16.4444H33.8977ZM4.75952 25.3333L3.1086 27.0231C1.27091 26.1324 0 24.218 0 22C0 19.782 1.27091 17.8676 3.1086 16.9769L4.75952 18.6667H11.7338V25.3333H4.75952ZM6.10931 16.4444C4.41211 15.5048 3.2594 13.6679 3.2594 11.5556C3.2594 8.70496 5.35871 6.35581 8.06248 6.03687L11.7338 9.78849V16.4444H6.10931ZM11.7338 27.5556V34.2115L8.06248 37.9631C5.35871 37.6442 3.2594 35.295 3.2594 32.4444C3.2594 30.3321 4.41211 28.4952 6.10931 27.5556H11.7338Z" fill="#00DCF0"/>
</svg>
